%YAML 1.1
%TAG !u! tag:unity3d.com,2011:
--- !u!114 &11400000
MonoBehaviour:
  m_ObjectHideFlags: 0
  m_CorrespondingSourceObject: {fileID: 0}
  m_PrefabInstance: {fileID: 0}
  m_PrefabAsset: {fileID: 0}
  m_GameObject: {fileID: 0}
  m_Enabled: 1
  m_EditorHideFlags: 0
  m_Script: {fileID: 11500000, guid: ea18f1706a65095468b31c6de6e0703d, type: 3}
  m_Name: Castle
  m_EditorClassIdentifier: 
  fieldPrefab: {fileID: 3000564471514316777, guid: 2da4f7cf4e74461428228368a32e4beb, type: 3}
  boardWidth: 8
  boardHeight: 8
  fieldWidth: 1
  fieldHeight: 1
  boardPadding: 0
  characters:
  - {fileID: 2275280654354083015, guid: 6d1a1d7a1495e63439cad8e26eff2413, type: 3}
  - {fileID: 6135206983288588882, guid: cdf4b604c5220184ca2b29cc3e0b04aa, type: 3}
  - {fileID: 7833575856896677801, guid: 2c4303795034eb647892e7b0da2a40c0, type: 3}
  - {fileID: 6149083133193873146, guid: fbc48d1012498b74089c01b4fa0715ef, type: 3}
  - {fileID: 6384491928930901148, guid: acedface224d14844955426fd37236d7, type: 3}
  - {fileID: 14655492536023521, guid: 14678bbf8472425468c0e35e5941a00d, type: 3}
  prePositionedCharacters:
  - prefab: {fileID: 2275280654354083015, guid: 6d1a1d7a1495e63439cad8e26eff2413, type: 3}
    position: {x: 0, y: 1}
    PlayerId: 0
  - prefab: {fileID: 2275280654354083015, guid: 6d1a1d7a1495e63439cad8e26eff2413, type: 3}
    position: {x: 1, y: 1}
    PlayerId: 0
  - prefab: {fileID: 2275280654354083015, guid: 6d1a1d7a1495e63439cad8e26eff2413, type: 3}
    position: {x: 2, y: 1}
    PlayerId: 0
  - prefab: {fileID: 2275280654354083015, guid: 6d1a1d7a1495e63439cad8e26eff2413, type: 3}
    position: {x: 3, y: 1}
    PlayerId: 0
  - prefab: {fileID: 2275280654354083015, guid: 6d1a1d7a1495e63439cad8e26eff2413, type: 3}
    position: {x: 4, y: 1}
    PlayerId: 0
  - prefab: {fileID: 2275280654354083015, guid: 6d1a1d7a1495e63439cad8e26eff2413, type: 3}
    position: {x: 5, y: 1}
    PlayerId: 0
  - prefab: {fileID: 2275280654354083015, guid: 6d1a1d7a1495e63439cad8e26eff2413, type: 3}
    position: {x: 6, y: 1}
    PlayerId: 0
  - prefab: {fileID: 2275280654354083015, guid: 6d1a1d7a1495e63439cad8e26eff2413, type: 3}
    position: {x: 7, y: 1}
    PlayerId: 0
  - prefab: {fileID: 2275280654354083015, guid: 6d1a1d7a1495e63439cad8e26eff2413, type: 3}
    position: {x: 0, y: 6}
    PlayerId: 1
  - prefab: {fileID: 2275280654354083015, guid: 6d1a1d7a1495e63439cad8e26eff2413, type: 3}
    position: {x: 1, y: 6}
    PlayerId: 1
  - prefab: {fileID: 2275280654354083015, guid: 6d1a1d7a1495e63439cad8e26eff2413, type: 3}
    position: {x: 2, y: 6}
    PlayerId: 1
  - prefab: {fileID: 2275280654354083015, guid: 6d1a1d7a1495e63439cad8e26eff2413, type: 3}
    position: {x: 3, y: 6}
    PlayerId: 1
  - prefab: {fileID: 2275280654354083015, guid: 6d1a1d7a1495e63439cad8e26eff2413, type: 3}
    position: {x: 4, y: 6}
    PlayerId: 1
  - prefab: {fileID: 2275280654354083015, guid: 6d1a1d7a1495e63439cad8e26eff2413, type: 3}
    position: {x: 5, y: 6}
    PlayerId: 1
  - prefab: {fileID: 2275280654354083015, guid: 6d1a1d7a1495e63439cad8e26eff2413, type: 3}
    position: {x: 6, y: 6}
    PlayerId: 1
  - prefab: {fileID: 2275280654354083015, guid: 6d1a1d7a1495e63439cad8e26eff2413, type: 3}
    position: {x: 7, y: 6}
    PlayerId: 1
  - prefab: {fileID: 6135206983288588882, guid: cdf4b604c5220184ca2b29cc3e0b04aa, type: 3}
    position: {x: 0, y: 0}
    PlayerId: 0
  - prefab: {fileID: 6135206983288588882, guid: cdf4b604c5220184ca2b29cc3e0b04aa, type: 3}
    position: {x: 7, y: 0}
    PlayerId: 0
  - prefab: {fileID: 6135206983288588882, guid: cdf4b604c5220184ca2b29cc3e0b04aa, type: 3}
    position: {x: 0, y: 7}
    PlayerId: 1
  - prefab: {fileID: 6135206983288588882, guid: cdf4b604c5220184ca2b29cc3e0b04aa, type: 3}
    position: {x: 7, y: 7}
    PlayerId: 1
  - prefab: {fileID: 6149083133193873146, guid: fbc48d1012498b74089c01b4fa0715ef, type: 3}
    position: {x: 2, y: 0}
    PlayerId: 0
  - prefab: {fileID: 6149083133193873146, guid: fbc48d1012498b74089c01b4fa0715ef, type: 3}
    position: {x: 5, y: 0}
    PlayerId: 0
  - prefab: {fileID: 6149083133193873146, guid: fbc48d1012498b74089c01b4fa0715ef, type: 3}
    position: {x: 2, y: 7}
    PlayerId: 1
  - prefab: {fileID: 6149083133193873146, guid: fbc48d1012498b74089c01b4fa0715ef, type: 3}
    position: {x: 5, y: 7}
    PlayerId: 1
  - prefab: {fileID: 6384491928930901148, guid: acedface224d14844955426fd37236d7, type: 3}
    position: {x: 3, y: 0}
    PlayerId: 0
  - prefab: {fileID: 6384491928930901148, guid: acedface224d14844955426fd37236d7, type: 3}
    position: {x: 4, y: 7}
    PlayerId: 1
  - prefab: {fileID: 14655492536023521, guid: 14678bbf8472425468c0e35e5941a00d, type: 3}
    position: {x: 4, y: 0}
    PlayerId: 0
  - prefab: {fileID: 14655492536023521, guid: 14678bbf8472425468c0e35e5941a00d, type: 3}
    position: {x: 3, y: 7}
    PlayerId: 1
  - prefab: {fileID: 7833575856896677801, guid: 2c4303795034eb647892e7b0da2a40c0, type: 3}
    position: {x: 1, y: 0}
    PlayerId: 0
  - prefab: {fileID: 7833575856896677801, guid: 2c4303795034eb647892e7b0da2a40c0, type: 3}
    position: {x: 6, y: 0}
    PlayerId: 0
  - prefab: {fileID: 7833575856896677801, guid: 2c4303795034eb647892e7b0da2a40c0, type: 3}
    position: {x: 1, y: 7}
    PlayerId: 1
  - prefab: {fileID: 7833575856896677801, guid: 2c4303795034eb647892e7b0da2a40c0, type: 3}
    position: {x: 6, y: 7}
    PlayerId: 1
  players:
  - id: 0
  - id: 1
